{
  "name": "Message",
  "fields": [
    {
      "fieldName": "contenu",
      "fieldType": "String"
    }
  ],
  "relationships": [
    {
      "relationshipType": "many-to-one",
      "otherEntityName": "client",
      "otherEntityRelationshipName": "message",
      "relationshipName": "receiver",
      "otherEntityField": "id"
    },
    {
      "relationshipType": "many-to-one",
      "otherEntityName": "client",
      "otherEntityRelationshipName": "message",
      "relationshipName": "sender",
      "otherEntityField": "id"
    }
  ],
  "changelogDate": "20200924100632",
  "entityTableName": "message",
  "dto": "mapstruct",
  "pagination": "no",
  "service": "serviceImpl",
  "jpaMetamodelFiltering": false,
  "fluentMethods": true,
  "readOnly": false,
  "embedded": false,
  "clientRootFolder": "",
  "applications": "*"
}
