com\mycompany\myapp\config\NoOpMailConfiguration.class
com\mycompany\myapp\security\SecurityUtilsUnitTest.class
com\mycompany\myapp\web\rest\ClientForwardControllerTest$TestController.class
com\mycompany\myapp\web\rest\errors\ExceptionTranslatorTestController$TestDTO.class
com\mycompany\myapp\web\rest\TestUtil$ZonedDateTimeMatcher.class
com\mycompany\myapp\domain\ClientTest.class
com\mycompany\myapp\service\dto\MessageDTOTest.class
com\mycompany\myapp\web\rest\errors\ExceptionTranslatorTestController.class
com\mycompany\myapp\web\rest\TestUtil.class
com\mycompany\myapp\config\WebConfigurerTestController.class
com\mycompany\myapp\service\UserServiceIT.class
com\mycompany\myapp\security\DomainUserDetailsServiceIT.class
com\mycompany\myapp\web\rest\AccountResourceIT.class
com\mycompany\myapp\web\rest\errors\ExceptionTranslatorTestController$TestResponseStatusException.class
com\mycompany\myapp\repository\CustomAuditEventRepositoryIT.class
com\mycompany\myapp\web\rest\ClientResourceIT.class
com\mycompany\myapp\domain\MessageTest.class
com\mycompany\myapp\service\dto\ClientDTOTest.class
com\mycompany\myapp\service\mapper\UserMapperTest.class
com\mycompany\myapp\web\rest\WithUnauthenticatedMockUser$Factory.class
com\mycompany\myapp\security\jwt\JWTFilterTest.class
com\mycompany\myapp\service\mapper\ClientMapperTest.class
com\mycompany\myapp\config\timezone\HibernateTimeZoneIT.class
com\mycompany\myapp\web\rest\UserJWTControllerIT.class
com\mycompany\myapp\ArchTest.class
com\mycompany\myapp\config\StaticResourcesWebConfigurerTest.class
com\mycompany\myapp\service\AuditEventServiceIT.class
com\mycompany\myapp\service\mapper\MessageMapperTest.class
com\mycompany\myapp\web\rest\UserResourceIT.class
com\mycompany\myapp\repository\timezone\DateTimeWrapper.class
com\mycompany\myapp\repository\timezone\DateTimeWrapper_.class
com\mycompany\myapp\web\rest\WithUnauthenticatedMockUser.class
com\mycompany\myapp\security\jwt\TokenProviderTest.class
com\mycompany\myapp\web\rest\MessageResourceIT.class
com\mycompany\myapp\config\WebConfigurerTest.class
com\mycompany\myapp\service\MailServiceIT.class
com\mycompany\myapp\web\rest\ClientForwardControllerTest.class
com\mycompany\myapp\repository\timezone\DateTimeWrapperRepository.class
com\mycompany\myapp\web\rest\AuditResourceIT.class
com\mycompany\myapp\web\rest\errors\ExceptionTranslatorIT.class
